…
``` r
n_items_df = instacart %>% 
  group_by(aisle, department) %>%
  summarise(n = n())
```

    ## `summarise()` has grouped output by 'aisle'. You can override using the `.groups` argument.

``` r
filter(n_items_df, n > 10000) %>%
print()
```

    ## # A tibble: 39 x 3
    ## # Groups:   aisle [39]
    ##    aisle                    department       n
    ##    <chr>                    <chr>        <int>
    ##  1 baby food formula        babies       13198
    ##  2 baking ingredients       pantry       13088
    ##  3 bread                    bakery       23635
    ##  4 butter                   dairy eggs   10575
    ##  5 candy chocolate          snacks       11453
    ##  6 canned jarred vegetables canned goods 12679
    ##  7 canned meals beans       canned goods 11774
    ##  8 cereal                   breakfast    16201
    ##  9 chips pretzels           snacks       31269
    ## 10 crackers                 snacks       19592
    ## # ... with 29 more rows
…
\#\#Creating Table with the 3 Most Popular Items Ordered from the Baking
Ingredients, Dog Food Care, and Packaged Vegetables Aisles

``` r
instacart %>%
  filter(aisle %in% c("baking ingredients", "dog food care", "packaged vegetables fruits")) %>%
  select(aisle, product_name) %>%
  group_by(product_name) %>%
  mutate(
    n_ordered = n(),
    n_rank = min_rank(desc(n_ordered)))
```

    ## # A tibble: 93,193 x 4
    ## # Groups:   product_name [1,444]
    ##    aisle                      product_name                      n_ordered n_rank
    ##    <chr>                      <chr>                                 <int>  <int>
    ##  1 packaged vegetables fruits Super Greens Salad                      644      1
    ##  2 packaged vegetables fruits Organic Biologique Limes                101      1
    ##  3 packaged vegetables fruits Organic Baby Arugula                   2923      1
    ##  4 packaged vegetables fruits Organic Grape Tomatoes                 3823      1
    ##  5 packaged vegetables fruits Organic Raspberries                    5546      1
    ##  6 packaged vegetables fruits Organic Blueberries                    4966      1
    ##  7 packaged vegetables fruits Organic Raspberries                    5546      1
    ##  8 baking ingredients         100% Organic Unbleached All-Purp~        21      1
    ##  9 baking ingredients         Organic Corn Starch                      21      1
    ## 10 packaged vegetables fruits I Heart Baby Kale                       475      1
    ## # ... with 93,183 more rows
…
    ## Warning: Unknown levels in `f`: Very Good

\#\#BRFSS exploratory data analysis

``` r
brfss_df %>%
 filter(year == 2002) %>%
  group_by(state_abbr) %>%
  summarize(n_locations = n_distinct(location_desc))
```

    ## # A tibble: 49 x 2
    ##    state_abbr n_locations
    ##    <chr>            <int>
    ##  1 AK                   1
    ##  2 AL                   1
    ##  3 AR                   1
    ##  4 AZ                   2
    ##  5 CA                   1
    ##  6 CO                   4
    ##  7 CT                   7
    ##  8 DC                   1
    ##  9 DE                   3
    ## 10 FL                   7
    ## # ... with 39 more rows
